DS 202 - tidying data with tidyr
…
pivot_wider

ffm %>% 
  pivot_wider(names_from='treatment', values_from='score')

## # A tibble: 1,160 x 7
##    time  subject   rep scale     `1`   `2`   `3`
##    <fct> <fct>   <dbl> <chr>   <dbl> <dbl> <dbl>
##  1 1     3           1 potato    2.9  13.9  14.1
##  2 1     3           1 buttery   0     0     0  
##  3 1     3           1 grassy    0     0     0  
##  4 1     3           1 rancid    0     3.9   1.1
##  5 1     3           1 painty    5.5   0     0  
##  6 1     3           2 potato   14    13.4   9.5
##  7 1     3           2 buttery   0     0.1   0  
##  8 1     3           2 grassy    0     0     0.6
##  9 1     3           2 rancid    1.1   1.5   2.8
## 10 1     3           2 painty    0     0     0  
## # … with 1,150 more rows
…
